wave_restartable_rate_generator.vcd
$date
	Tue May  5 13:47:06 2026
$end
$version
	Icarus Verilog
$end
$timescale
	1ps
$end
$scope module wave_restartable_rate_generator $end
$var wire 1 ! tick $end
$var reg 1 " clk $end
$var reg 1 # run $end
$scope module dut $end
$var wire 1 " clk $end
$var wire 1 # run $end
$var wire 1 ! tick $end
$var parameter 32 $ CYCLE_COUNT $end
$var parameter 32 % WIDTH $end
$var reg 3 & state [2:0] $end
$scope begin gen_cycle_gt1 $end
$upscope $end
$upscope $end
$upscope $end
$enddefinitions $end
$comment Show the parameter values. $end
$dumpall
b11 %
b101 $
$end
#0
$dumpvars
bx &
0#
0"
x!
$end
#5000
0!
b0 &
1"
#10000
0"
#15000
1"
#20000
0"
#25000
1"
#30000
0"
1#
#35000
b1 &
1"
#40000
0"
#45000
b10 &
1"
#50000
0"
#55000
b11 &
1"
#60000
0"
#65000
1!
b100 &
1"
#70000
0"
#75000
0!
b0 &
1"
#80000
0"
#85000
b1 &
1"
#90000
0"
#95000
b10 &
1"
#100000
0"
#105000
b11 &
1"
#110000
0"
#115000
1!
b100 &
1"
#120000
0"
#125000
0!
b0 &
1"
#130000
0"
#135000
b1 &
1"
#140000
0"
#145000
b10 &
1"
#150000
0"
#155000
b11 &
1"
#160000
0"
0#
#165000
b0 &
1"
#170000
0"
#175000
1"
#180000
0"
#185000
1"
#190000
0"
1#
#195000
b1 &
1"
#200000
0"
#205000
b10 &
1"
#210000
0"
#215000
b11 &
1"
#220000
0"
#225000
1!
b100 &
1"
#230000
0"
#235000
0!
b0 &
1"
#240000
0"
#245000
b1 &
1"
#250000
0"
#255000
b10 &
1"
#260000
0"
#265000
b11 &
1"
#270000
0"
#275000
1!
b100 &
1"
#280000
0"
0#
#285000
0!
b0 &
1"
