wave_hms_counter.vcd
$date
	Tue May  5 03:57:32 2026
$end
$version
	Icarus Verilog
$end
$timescale
	1ps
$end
$scope module wave_hms_counter $end
$var wire 3 ! seconds [2:0] $end
$var wire 2 " minutes [1:0] $end
$var wire 2 # hours [1:0] $end
$var reg 1 $ clk $end
$var reg 1 % enable $end
$scope module dut $end
$var wire 1 $ clk $end
$var wire 1 % enable $end
$var wire 1 & min_rollover $end
$var wire 1 ' sec_rollover $end
$var wire 3 ( seconds [2:0] $end
$var wire 2 ) minutes [1:0] $end
$var wire 2 * hours [1:0] $end
$var parameter 2 + MaxHours $end
$var parameter 2 , MaxMinutes $end
$var parameter 3 - MaxSeconds $end
$var parameter 32 . N_HOURS $end
$var parameter 32 / N_MINUTES $end
$var parameter 32 0 N_SECONDS $end
$var parameter 32 1 W_HOURS $end
$var parameter 32 2 W_MINUTES $end
$var parameter 32 3 W_SECONDS $end
$scope module u_hour $end
$var wire 1 $ clk $end
$var wire 1 & enable $end
$var wire 1 4 up $end
$var parameter 32 5 MAX $end
$var parameter 32 6 WIDTH $end
$var reg 2 7 count [1:0] $end
$var reg 2 8 next_count [1:0] $end
$upscope $end
$scope module u_minute $end
$var wire 1 $ clk $end
$var wire 1 ' enable $end
$var wire 1 9 up $end
$var parameter 32 : MAX $end
$var parameter 32 ; WIDTH $end
$var reg 2 < count [1:0] $end
$var reg 2 = next_count [1:0] $end
$upscope $end
$scope module u_second $end
$var wire 1 $ clk $end
$var wire 1 % enable $end
$var wire 1 > up $end
$var parameter 32 ? MAX $end
$var parameter 32 @ WIDTH $end
$var reg 3 A count [2:0] $end
$var reg 3 B next_count [2:0] $end
$upscope $end
$upscope $end
$upscope $end
$enddefinitions $end
$comment Show the parameter values. $end
$dumpall
b11 @
b100 ?
b10 ;
b11 :
b10 6
b10 5
b11 3
b10 2
b10 1
b101 0
b100 /
b11 .
b100 -
b11 ,
b10 +
$end
#0
$dumpvars
b1 B
b0 A
1>
b1 =
b0 <
19
b1 8
b0 7
14
b0 *
b0 )
b0 (
0'
0&
0%
0$
b0 #
b0 "
b0 !
$end
#5000
1$
#10000
0$
#15000
1$
#20000
0$
1%
#25000
b10 B
b1 !
b1 (
b1 A
1$
#30000
0$
#35000
b11 B
b10 !
b10 (
b10 A
1$
#40000
0$
#45000
b100 B
b11 !
b11 (
b11 A
1$
#50000
0$
#55000
b0 B
1'
b100 !
b100 (
b100 A
1$
#60000
0$
#65000
b1 B
0'
b10 =
b0 !
b0 (
b0 A
b1 "
b1 )
b1 <
1$
#70000
0$
#75000
b10 B
b1 !
b1 (
b1 A
1$
#80000
0$
#85000
b11 B
b10 !
b10 (
b10 A
1$
#90000
0$
#95000
b100 B
b11 !
b11 (
b11 A
1$
#100000
0$
#105000
b0 B
1'
b100 !
b100 (
b100 A
1$
#110000
0$
#115000
b11 =
b1 B
0'
b10 "
b10 )
b10 <
b0 !
b0 (
b0 A
1$
#120000
0$
#125000
b10 B
b1 !
b1 (
b1 A
1$
#130000
0$
#135000
b11 B
b10 !
b10 (
b10 A
1$
#140000
0$
#145000
b100 B
b11 !
b11 (
b11 A
1$
#150000
0$
#155000
b0 B
1'
b100 !
b100 (
b100 A
1$
#160000
0$
#165000
b1 B
0'
b0 =
0&
b0 !
b0 (
b0 A
b11 "
b11 )
b11 <
1$
#170000
0$
#175000
b10 B
b1 !
b1 (
b1 A
1$
#180000
0$
#185000
b11 B
b10 !
b10 (
b10 A
1$
#190000
0$
#195000
b100 B
b11 !
b11 (
b11 A
1$
#200000
0$
#205000
1&
b0 B
1'
b100 !
b100 (
b100 A
1$
#210000
0$
#215000
b10 8
b1 =
0&
b1 B
0'
b1 #
b1 *
b1 7
b0 "
b0 )
b0 <
b0 !
b0 (
b0 A
1$
#220000
0$
#225000
b10 B
b1 !
b1 (
b1 A
1$
#230000
0$
#235000
b11 B
b10 !
b10 (
b10 A
1$
#240000
0$
#245000
b100 B
b11 !
b11 (
b11 A
1$
#250000
0$
#255000
b0 B
1'
b100 !
b100 (
b100 A
1$
#260000
0$
#265000
b1 B
0'
b10 =
b0 !
b0 (
b0 A
b1 "
b1 )
b1 <
1$
#270000
0$
#275000
b10 B
b1 !
b1 (
b1 A
1$
#280000
0$
#285000
b11 B
b10 !
b10 (
b10 A
1$
#290000
0$
#295000
b100 B
b11 !
b11 (
b11 A
1$
#300000
0$
#305000
b0 B
1'
b100 !
b100 (
b100 A
1$
#310000
0$
#315000
b11 =
b1 B
0'
b10 "
b10 )
b10 <
b0 !
b0 (
b0 A
1$
#320000
0$
#325000
b10 B
b1 !
b1 (
b1 A
1$
#330000
0$
#335000
b11 B
b10 !
b10 (
b10 A
1$
#340000
0$
#345000
b100 B
b11 !
b11 (
b11 A
1$
#350000
0$
#355000
b0 B
1'
b100 !
b100 (
b100 A
1$
#360000
0$
#365000
b1 B
0'
b0 =
0&
b0 !
b0 (
b0 A
b11 "
b11 )
b11 <
1$
#370000
0$
#375000
b10 B
b1 !
b1 (
b1 A
1$
#380000
0$
#385000
b11 B
b10 !
b10 (
b10 A
1$
#390000
0$
#395000
b100 B
b11 !
b11 (
b11 A
1$
#400000
0$
#405000
1&
b0 B
1'
b100 !
b100 (
b100 A
1$
#410000
0$
#415000
b0 8
b1 =
0&
b1 B
0'
b10 #
b10 *
b10 7
b0 "
b0 )
b0 <
b0 !
b0 (
b0 A
1$
#420000
0$
#425000
b10 B
b1 !
b1 (
b1 A
1$
#430000
0$
#435000
b11 B
b10 !
b10 (
b10 A
1$
#440000
0$
#445000
b100 B
b11 !
b11 (
b11 A
1$
#450000
0$
#455000
b0 B
1'
b100 !
b100 (
b100 A
1$
#460000
0$
#465000
b1 B
0'
b10 =
b0 !
b0 (
b0 A
b1 "
b1 )
b1 <
1$
#470000
0$
#475000
b10 B
b1 !
b1 (
b1 A
1$
#480000
0$
#485000
b11 B
b10 !
b10 (
b10 A
1$
#490000
0$
#495000
b100 B
b11 !
b11 (
b11 A
1$
#500000
0$
#505000
b0 B
1'
b100 !
b100 (
b100 A
1$
#510000
0$
#515000
b11 =
b1 B
0'
b10 "
b10 )
b10 <
b0 !
b0 (
b0 A
1$
#520000
0$
#525000
b10 B
b1 !
b1 (
b1 A
1$
#530000
0$
#535000
b11 B
b10 !
b10 (
b10 A
1$
#540000
0$
#545000
b100 B
b11 !
b11 (
b11 A
1$
#550000
0$
#555000
b0 B
1'
b100 !
b100 (
b100 A
1$
#560000
0$
#565000
b1 B
0'
b0 =
0&
b0 !
b0 (
b0 A
b11 "
b11 )
b11 <
1$
#570000
0$
#575000
b10 B
b1 !
b1 (
b1 A
1$
#580000
0$
#585000
b11 B
b10 !
b10 (
b10 A
1$
#590000
0$
#595000
b100 B
b11 !
b11 (
b11 A
1$
#600000
0$
#605000
1&
b0 B
1'
b100 !
b100 (
b100 A
1$
#610000
0$
#615000
b1 8
b1 =
0&
b1 B
0'
b0 #
b0 *
b0 7
b0 "
b0 )
b0 <
b0 !
b0 (
b0 A
1$
