wave_mod_n_counter.vcd
$date
	Tue May  5 13:25:00 2026
$end
$version
	Icarus Verilog
$end
$timescale
	1ps
$end
$scope module wave_mod_n_counter $end
$var wire 3 ! count [2:0] $end
$var reg 1 " clk $end
$var reg 1 # enable $end
$var reg 1 $ rst $end
$scope module dut $end
$var wire 1 " clk $end
$var wire 1 # enable $end
$var wire 1 $ rst $end
$var parameter 32 % N $end
$var parameter 32 & WIDTH $end
$var reg 3 ' count [2:0] $end
$var reg 3 ( next_count [2:0] $end
$upscope $end
$upscope $end
$enddefinitions $end
$comment Show the parameter values. $end
$dumpall
b11 &
b101 %
$end
#0
$dumpvars
b1 (
b0 '
1$
0#
0"
b0 !
$end
#5000
1"
#10000
0"
#15000
1"
#20000
0"
#25000
1"
#30000
0"
1#
0$
#35000
b10 (
b1 !
b1 '
1"
#40000
0"
#45000
b11 (
b10 !
b10 '
1"
#50000
0"
#55000
b100 (
b11 !
b11 '
1"
#60000
0"
#65000
b0 (
b100 !
b100 '
1"
#70000
0"
#75000
b1 (
b0 !
b0 '
1"
#80000
0"
#85000
b10 (
b1 !
b1 '
1"
#90000
0"
#95000
b11 (
b10 !
b10 '
1"
#100000
0"
#105000
b100 (
b11 !
b11 '
1"
#110000
0"
#115000
b0 (
b100 !
b100 '
1"
#120000
0"
#125000
b1 (
b0 !
b0 '
1"
#130000
0"
#135000
b10 (
b1 !
b1 '
1"
#140000
0"
0#
#145000
1"
#150000
0"
#155000
1"
#160000
0"
#165000
1"
#170000
0"
1#
#175000
b11 (
b10 !
b10 '
1"
#180000
0"
#185000
b100 (
b11 !
b11 '
1"
#190000
0"
#195000
b0 (
b100 !
b100 '
1"
#200000
0"
#205000
b1 (
b0 !
b0 '
1"
#210000
0"
1$
#215000
1"
#220000
0"
0$
#225000
b10 (
b1 !
b1 '
1"
#230000
0"
#235000
b11 (
b10 !
b10 '
1"
#240000
0"
#245000
b100 (
b11 !
b11 '
1"
#250000
0"
#255000
b0 (
b100 !
b100 '
1"
#260000
0"
#265000
b1 (
b0 !
b0 '
1"
#270000
0"
#275000
b10 (
b1 !
b1 '
1"
#280000
0"
#285000
b11 (
b10 !
b10 '
1"
#290000
0"
#295000
b100 (
b11 !
b11 '
1"
#300000
0"
#305000
b0 (
b100 !
b100 '
1"
#310000
0"
#315000
b1 (
b0 !
b0 '
1"
#320000
0"
#325000
b10 (
b1 !
b1 '
1"
#330000
0"
#335000
b11 (
b10 !
b10 '
1"
#340000
0"
#345000
b100 (
b11 !
b11 '
1"
